>> opt_pricer_pc_end

E =

    0.0400         0
         0    0.0400


dnew =

    1.0216    0.9892    0.9892
    1.0000    1.0187    0.9813


callmaxK =

    1.5496


callminK =

    0.0867


pminK =

    8.5273


pmaxK =

    3.1090


ans =

    '      ANALYTICL_SOL=1.54955502775205999910'


ans =

    ' INIT_SHARE{1} (hex) = 407531ab774f5970'


ans =

    ' INIT_SHARE{2} (hex) = 4043fffffffff6b9'


ans =

    ' MULT_COEFF{1} (hex) = 3fd5551fb1c73f3a'


ans =

    ' MULT_COEFF{2} (hex) = 3fd55570488a149b'


ans =

    ' MULT_COEFF{3} (hex) = 3fd5557005aeac2a'


ans =

    '     STRIKE{1} (hex) = 4046800000000000'


ans =

    '     STRIKE{2} (hex) = 4046800000000000'


ans =

    '       MAX_MIN (bin) = 0'


ans =

    '          CASH (hex) = 0000000000000000'


ans =

    '    NUM_LAYERS (bin) = 000000001100100'


ans =

    'SHARE_COEFF{1} (hex) = 3fef52c288aa37ae'


ans =

    'SHARE_COEFF{2} (hex) = 3ff0000000000013'


ans =

    '  INIT_STEP{1} (hex) = 3feefc2513ad60c9'


ans =

    '  INIT_STEP{2} (hex) = 3ff04ca203db8573'


ans =

    '  INIT_STEP{3} (hex) = 3ff0000000000000'


ans =

    '  INIT_STEP{4} (hex) = 3feed3191e4bea8e'


ans =

    '  INIT_STEP_NEXT{1} (hex) = 3fef52c288aa37ae'


ans =

    '  INIT_STEP_NEXT{2} (hex) = 3ff0000000000013'

>> 
